{
  "list":
    [
      {
        "name": "John Kenedy",
        "address": "USA",
        "age": 123
      },
      {
        "name": "Marko Polo",
        "address": "China",
        "age": 321
      }
    ]
}